{
  "fields": [
    {
      "name": "id",
      "labels": "Id",
      "html-type": "number",
      "css-class": "",
      "options": {},
      "html-value": null,
      "validation": "",
      "is-on-index": false,
      "is-on-show": false,
      "is-on-form": false,
      "data-type": "int",
      "data-type-params": [],
      "data-value": null,
      "is-index": false,
      "is-unique": false,
      "is-primary": true,
      "comment": null,
      "is-nullable": false,
      "is-header": false,
      "is-unsigned": true,
      "is-auto-increment": true,
      "is-inline-options": false,
      "is-date": false,
      "date-format": "",
      "cast-as": "",
      "placeholder": "Enter id here...",
      "delimiter": "; ",
      "range": [],
      "foreign-relation": null,
      "foreign-constraint": null,
      "on-store": null,
      "on-update": null,
      "api-key": "id",
      "is-api-visible": true,
      "api-description": "The id of the model."
    },
    {
      "name": "row",
      "labels": "Row",
      "html-type": "number",
      "css-class": "",
      "options": {},
      "html-value": null,
      "validation": "required",
      "is-on-index": true,
      "is-on-show": true,
      "is-on-form": true,
      "data-type": "int",
      "data-type-params": [],
      "data-value": null,
      "is-index": false,
      "is-unique": false,
      "is-primary": false,
      "comment": null,
      "is-nullable": false,
      "is-header": false,
      "is-unsigned": false,
      "is-auto-increment": false,
      "is-inline-options": false,
      "is-date": false,
      "date-format": "",
      "cast-as": "",
      "placeholder": "Enter row here...",
      "delimiter": "; ",
      "range": [],
      "foreign-relation": null,
      "foreign-constraint": null,
      "on-store": null,
      "on-update": null,
      "api-key": "row",
      "is-api-visible": true,
      "api-description": "The row of the model."
    },
    {
      "name": "column",
      "labels": "Column",
      "html-type": "number",
      "css-class": "",
      "options": {},
      "html-value": null,
      "validation": "required",
      "is-on-index": true,
      "is-on-show": true,
      "is-on-form": true,
      "data-type": "int",
      "data-type-params": [],
      "data-value": null,
      "is-index": false,
      "is-unique": false,
      "is-primary": false,
      "comment": null,
      "is-nullable": false,
      "is-header": false,
      "is-unsigned": false,
      "is-auto-increment": false,
      "is-inline-options": false,
      "is-date": false,
      "date-format": "",
      "cast-as": "",
      "placeholder": "Enter column here...",
      "delimiter": "; ",
      "range": [],
      "foreign-relation": null,
      "foreign-constraint": null,
      "on-store": null,
      "on-update": null,
      "api-key": "column",
      "is-api-visible": true,
      "api-description": "The column of the model."
    },
    {
      "name": "user_id",
      "labels": "User",
      "html-type": "select",
      "css-class": "",
      "options": {},
      "html-value": null,
      "validation": "required",
      "is-on-index": true,
      "is-on-show": true,
      "is-on-form": true,
      "data-type": "int",
      "data-type-params": [],
      "data-value": null,
      "is-index": true,
      "is-unique": false,
      "is-primary": false,
      "comment": null,
      "is-nullable": false,
      "is-header": false,
      "is-unsigned": true,
      "is-auto-increment": false,
      "is-inline-options": false,
      "is-date": false,
      "date-format": "",
      "cast-as": "",
      "placeholder": "Select user",
      "delimiter": "; ",
      "range": [],
      "foreign-relation": {
        "name": "User",
        "type": "belongsTo",
        "params": [
          "App\\Models\\User",
          "user_id",
          "id"
        ],
        "field": "id"
      },
      "foreign-constraint": {
        "field": "user_id",
        "references": "users",
        "on": "id",
        "on-delete": "restrict",
        "on-update": "restrict",
        "references-model": "App\\Models\\\\User",
        "is-self-reference": false
      },
      "on-store": null,
      "on-update": null,
      "api-key": "user_id",
      "is-api-visible": true,
      "api-description": "The user of the model."
    },
    {
      "name": "game_id",
      "labels": "Game",
      "html-type": "select",
      "css-class": "",
      "options": {},
      "html-value": null,
      "validation": "required",
      "is-on-index": true,
      "is-on-show": true,
      "is-on-form": true,
      "data-type": "int",
      "data-type-params": [],
      "data-value": null,
      "is-index": true,
      "is-unique": false,
      "is-primary": false,
      "comment": null,
      "is-nullable": false,
      "is-header": false,
      "is-unsigned": true,
      "is-auto-increment": false,
      "is-inline-options": false,
      "is-date": false,
      "date-format": "",
      "cast-as": "",
      "placeholder": "Select game",
      "delimiter": "; ",
      "range": [],
      "foreign-relation": {
        "name": "Game",
        "type": "belongsTo",
        "params": [
          "App\\Models\\Game",
          "game_id",
          "id"
        ],
        "field": "status"
      },
      "foreign-constraint": {
        "field": "game_id",
        "references": "games",
        "on": "id",
        "on-delete": "restrict",
        "on-update": "restrict",
        "references-model": "App\\Models\\\\Game",
        "is-self-reference": false
      },
      "on-store": null,
      "on-update": null,
      "api-key": "game_id",
      "is-api-visible": true,
      "api-description": "The game of the model."
    },
    {
      "name": "ship_id",
      "labels": "Ship",
      "html-type": "select",
      "css-class": "",
      "options": {},
      "html-value": null,
      "validation": "required",
      "is-on-index": true,
      "is-on-show": true,
      "is-on-form": true,
      "data-type": "int",
      "data-type-params": [],
      "data-value": null,
      "is-index": true,
      "is-unique": false,
      "is-primary": false,
      "comment": null,
      "is-nullable": false,
      "is-header": false,
      "is-unsigned": true,
      "is-auto-increment": false,
      "is-inline-options": false,
      "is-date": false,
      "date-format": "",
      "cast-as": "",
      "placeholder": "Select ship",
      "delimiter": "; ",
      "range": [],
      "foreign-relation": {
        "name": "Ship",
        "type": "belongsTo",
        "params": [
          "App\\Models\\Ship",
          "ship_id",
          "id"
        ],
        "field": "id"
      },
      "foreign-constraint": {
        "field": "ship_id",
        "references": "ships",
        "on": "id",
        "on-delete": "restrict",
        "on-update": "restrict",
        "references-model": "App\\Models\\\\Ship",
        "is-self-reference": false
      },
      "on-store": null,
      "on-update": null,
      "api-key": "ship_id",
      "is-api-visible": true,
      "api-description": "The ship of the model."
    },
    {
      "name": "message_id",
      "labels": "Message",
      "html-type": "select",
      "css-class": "",
      "options": {},
      "html-value": null,
      "validation": "nullable|numeric|min:0|max:4294967295",
      "is-on-index": false,
      "is-on-show": true,
      "is-on-form": true,
      "data-type": "int",
      "data-type-params": [],
      "data-value": null,
      "is-index": true,
      "is-unique": false,
      "is-primary": false,
      "comment": null,
      "is-nullable": true,
      "is-header": false,
      "is-unsigned": true,
      "is-auto-increment": false,
      "is-inline-options": false,
      "is-date": false,
      "date-format": "",
      "cast-as": "",
      "placeholder": "Enter message here...",
      "delimiter": "; ",
      "range": [],
      "foreign-relation": {
        "name": "Message",
        "type": "belongsTo",
        "params": [
          "App\\Models\\Message",
          "message_id",
          "id"
        ],
        "field": "id"
      },
      "foreign-constraint": {
        "field": "message_id",
        "references": "messages",
        "on": "id",
        "on-delete": "restrict",
        "on-update": "restrict",
        "references-model": "App\\Models\\\\Message",
        "is-self-reference": false
      },
      "on-store": null,
      "on-update": null,
      "api-key": "message_id",
      "is-api-visible": true,
      "api-description": "The message of the model."
    },
    {
      "name": "created_at",
      "labels": "Created At",
      "html-type": "text",
      "css-class": "",
      "options": {},
      "html-value": null,
      "validation": "",
      "is-on-index": false,
      "is-on-show": true,
      "is-on-form": false,
      "data-type": "timestamp",
      "data-type-params": [],
      "data-value": null,
      "is-index": false,
      "is-unique": false,
      "is-primary": false,
      "comment": null,
      "is-nullable": true,
      "is-header": false,
      "is-unsigned": false,
      "is-auto-increment": false,
      "is-inline-options": false,
      "is-date": false,
      "date-format": "j/n/Y g:i A",
      "cast-as": "",
      "placeholder": "Enter created at here...",
      "delimiter": "; ",
      "range": [],
      "foreign-relation": null,
      "foreign-constraint": null,
      "on-store": null,
      "on-update": null,
      "api-key": "created_at",
      "is-api-visible": false,
      "api-description": "The created at of the model."
    },
    {
      "name": "updated_at",
      "labels": "Updated At",
      "html-type": "text",
      "css-class": "",
      "options": {},
      "html-value": null,
      "validation": "",
      "is-on-index": false,
      "is-on-show": true,
      "is-on-form": false,
      "data-type": "timestamp",
      "data-type-params": [],
      "data-value": null,
      "is-index": false,
      "is-unique": false,
      "is-primary": false,
      "comment": null,
      "is-nullable": true,
      "is-header": false,
      "is-unsigned": false,
      "is-auto-increment": false,
      "is-inline-options": false,
      "is-date": false,
      "date-format": "j/n/Y g:i A",
      "cast-as": "",
      "placeholder": "Enter updated at here...",
      "delimiter": "; ",
      "range": [],
      "foreign-relation": null,
      "foreign-constraint": null,
      "on-store": null,
      "on-update": null,
      "api-key": "updated_at",
      "is-api-visible": false,
      "api-description": "The updated at of the model."
    }
  ],
  "relations": [],
  "indexes": [],
  "auto-manage-created-and-updated-at": true,
  "table-name": "cells",
  "protection": {
    "is-model-protected": false,
    "is-controller-protected": false,
    "is-api-resource-protected": false,
    "is-api-resource-collection-protected": false,
    "is-api-documentation-protected": false,
    "is-api-documentation-controller-protected": false,
    "is-form-request-protected": false,
    "is-languages-protected": false,
    "is-form-view-protected": false,
    "is-index-view-protected": false,
    "is-create-view-protected": false,
    "is-edit-view-protected": false,
    "is-show-view-protected": false
  },
  "api-documentation": {
    "access_token_with_bearer": "The access token prefixed with the \"Bearer \" key word.",
    "index_route_description": "Retrieve existing cells.",
    "index_route_response_description": "The API's response will be JSON based data. The JSON object will be structured as follow",
    "the_key_is_the_model_property_and_the_value_is_the_model_value": "The array's key is the cell property name where the value is the assigned value to the retrieved cell.",
    "link_to_retrieve_first_page": "Link to retrieve first page.",
    "link_to_retrieve_last_page": "Link to retrieve last page.",
    "link_to_retrieve_previous_page": "Link to retrieve previous page.",
    "link_to_retrieve_next_page": "Link to retrieve next page.",
    "the_number_of_current_page": "The number of current page.",
    "the_index_of_the_first_retrieved_item": "The index of first retrieved cell.",
    "the_number_of_the_last_page": "The number of the last page.",
    "the_base_link_to_the_resource": "The base link to the api resource.",
    "the_number_of_models_per_page": "The number of cells per page.",
    "the_index_of_the_last_retrieved_item": "The index of last retrieved cell.",
    "the_total_of_available_pages": "The total of the available pages.",
    "store_route_description": "Create new cell.",
    "store_route_response_description": "The API's response will be JSON based data. The JSON object will be structured as follow",
    "update_route_description": "Update existsing cell.",
    "update_route_response_description": "The API's response will be JSON based data. The JSON object will be structured as follow",
    "show_route_description": "Retrieve existsing cell.",
    "show_route_response_description": "The API's response will be JSON based data. The JSON object will be structured as follow",
    "the_id_of_model_to_retrieve": "The unique id of the cell to retrieve",
    "destroy_route_description": "Delete existsing cell.",
    "destroy_route_response_description": "The API's response will be JSON based data. The JSON object will be structured as follow",
    "the_id_of_model_to_delete": "The id of the cell to delete.",
    "general_description": "Allows you to list, create, edit, show and delete cells.",
    "indicate_whether_the_request_was_successful_or_not": "Indicate whether the request was successful or not.",
    "the_id_of_the_model": "The id of the cell.",
    "this_parameter_must_be_present_in_the_request": "This parameter must be present in the request.",
    "the_request_failed_validation": "The request failed validation.",
    "list_of_the_invalid_errors": "List of the invalid errors.",
    "the_requested_model_does_not_exists": "The requested cell does not exists.",
    "the_user_does_not_have_permission_to_access_the_requested_resource": "User does not have permission to access the requested resource."
  }
}