[
  {
    "model-name": "Game",
    "resource-file": "games.json",
    "table-name": "games"
  },
  {
    "model-name": "Cell",
    "resource-file": "cells.json",
    "table-name": "cells"
  },
  {
    "model-name": "ShipTemplate",
    "resource-file": "ship_templates.json",
    "table-name": "ship_templates"
  },
  {
    "model-name": "Ship",
    "resource-file": "ships.json",
    "table-name": "ships"
  },
  {
    "model-name": "ShipList",
    "resource-file": "ship_lists.json",
    "table-name": "ship_lists"
  },
  {
    "model-name": "Message",
    "resource-file": "messages.json",
    "table-name": "messages"
  },
  {
    "model-name": "Notification",
    "resource-file": "notifications.json",
    "table-name": "notifications"
  },
  {
    "model-name": "NotificationType",
    "resource-file": "notification_types.json",
    "table-name": "notification_types"
  }
]